{
    "jobs": [
        {"title": "UX Designer", "id": 1, "details": "lorem designer"},
        {"title": "Web Dev", "id": 2, "details": "lorem web dev"},
        {"title": "Vue Dev", "id": 3, "details": "lorem vue dev"}
    ]
}